…
``` r
## summarize the number of trees with extreme height for each genus of trees ##
vancouver_trees %>%
  group_by(genus_name)%>%
  mutate(height_med=median(height_range_id)) %>%
  filter(height_range_id> height_med) %>%
  group_by(genus_name,neighbourhood_name,height_med) %>%
  summarise(num_highTree=n(),med_highTree=median(height_range_id),.groups = "drop") %>%
  arrange(desc(num_highTree))
```

    ## # A tibble: 979 × 5
    ##    genus_name neighbourhood_name       height_med num_highTree med_highTree
    ##    <chr>      <chr>                         <dbl>        <int>        <dbl>
    ##  1 ACER       KITSILANO                         2         1481            5
    ##  2 ACER       DUNBAR-SOUTHLANDS                 2         1362            5
    ##  3 ACER       HASTINGS-SUNRISE                  2         1265            4
    ##  4 ACER       SHAUGHNESSY                       2         1127            5
    ##  5 PRUNUS     VICTORIA-FRASERVIEW               2         1096            3
    ##  6 PRUNUS     RENFREW-COLLINGWOOD               2         1027            3
    ##  7 ACER       KERRISDALE                        2         1024            5
    ##  8 PRUNUS     KENSINGTON-CEDAR COTTAGE          2         1019            3
    ##  9 ACER       KENSINGTON-CEDAR COTTAGE          2          956            4
    ## 10 ACER       MOUNT PLEASANT                    2          906            4
    ## # … with 969 more rows
…
``` r
pa_summ<-vancouver_trees %>%
  group_by(plant_area) %>%
  mutate(totalTree_pa=n()) %>%
  group_by(plant_area,totalTree_pa,genus_name) %>%
  summarise(n=n(),mean(diameter),min(diameter),max(diameter),median(height_range_id),min(height_range_id),max(height_range_id),.groups="drop") %>%
  arrange(desc(totalTree_pa),desc(n))

pa_summ
```

    ## # A tibble: 1,565 × 10
    ##    plant_area totalTree_pa genus_name     n `mean(diameter)` `min(diameter)`
    ##    <chr>             <int> <chr>      <int>            <dbl>           <dbl>
    ##  1 10                20467 PRUNUS      5578            14.6             0   
    ##  2 10                20467 ACER        5020            14.1             0   
    ##  3 10                20467 FRAXINUS    1124            10.6             0   
    ##  4 10                20467 QUERCUS      862            17.4             1.75
    ##  5 10                20467 TILIA        772            14.6             3   
    ##  6 10                20467 MALUS        703             6.52            0   
    ##  7 10                20467 ULMUS        615            25.0             3   
    ##  8 10                20467 MAGNOLIA     554             9.17            1   
    ##  9 10                20467 AESCULUS     476            24.0             3   
    ## 10 10                20467 CRATAEGUS    453             6.43            0   
    ## # … with 1,555 more rows, and 4 more variables: max(diameter) <dbl>,
    ## #   median(height_range_id) <dbl>, min(height_range_id) <dbl>,
    ## #   max(height_range_id) <dbl>

-   Further summarize to get the top 1 popular genus of tree in each
    kind of plant_area. **PRUNUS** and **ACER** are the most popular one
    in most of plant area.

``` r
pa_summ %>%
  group_by(plant_area) %>%
  summarise(across(everything(),first)) %>%
  arrange(desc(totalTree_pa))
```

    ## # A tibble: 49 × 10
    ##    plant_area totalTree_pa genus_name     n `mean(diameter)` `min(diameter)`
    ##    <chr>             <int> <chr>      <int>            <dbl>           <dbl>
    ##  1 10                20467 PRUNUS      5578            14.6             0   
    ##  2 8                 15742 PRUNUS      4517            14.3             0   
    ##  3 N                 14007 PRUNUS      2814            12.6             0   
    ##  4 6                 13856 PRUNUS      3245            14.2             0   
    ##  5 7                 11864 PRUNUS      3150            15.7             0   
    ##  6 12                 9198 PRUNUS      2377            13.5             0.25
    ##  7 4                  9100 ACER        2792             7.50            0.5 
    ##  8 B                  8899 ACER        1896            10.4             1   
    ##  9 C                  8320 ACER        3016             7.32            1   
    ## 10 3                  7919 ACER        2286             6.87            2   
    ## # … with 39 more rows, and 4 more variables: max(diameter) <dbl>,
    ## #   median(height_range_id) <dbl>, min(height_range_id) <dbl>,
    ## #   max(height_range_id) <dbl>
…
