…
#### 2. Find the most popular genuses of Vancouver trees and their average diameter and height.

-   **ACER** and **PRUNUS** are much more popular in Vancouver among
    others,almost 5 times than the third one.
-   Their heights mainly in range 2 and diameters are above 10.
-   I’ll focus on the two genuses of trees to do further study.

``` r
vancouver_trees %>%
  group_by(genus_name)%>%
  summarise(diam_mean=mean(diameter),height_med=median(height_range_id),n=n())%>%
  arrange(desc(n))
```

    ## # A tibble: 97 × 4
    ##    genus_name diam_mean height_med     n
    ##    <chr>          <dbl>      <dbl> <int>
    ##  1 ACER           10.6           2 36062
    ##  2 PRUNUS         13.9           2 30683
    ##  3 FRAXINUS        9.51          2  7381
    ##  4 TILIA          13.5           4  6773
    ##  5 QUERCUS        15.2           4  6119
    ##  6 CARPINUS        9.33          2  5806
    ##  7 FAGUS           8.27          2  4808
    ##  8 MALUS           6.12          2  4173
    ##  9 MAGNOLIA        6.97          2  3899
    ## 10 CRATAEGUS       6.19          2  3864
    ## # … with 87 more rows
…
``` r
## identify the neighbourhood_name with the most thick trees##
vancouver_trees %>%
  filter(genus_name %in% c("ACER","PRUNUS"))%>%
  group_by(genus_name)%>%
  filter(diameter>quantile(diameter,probs=0.8)) %>%
  group_by(genus_name,neighbourhood_name)  %>%
  summarise(diam_mean=mean(diameter),height_med=median(height_range_id),n=n(),.groups = "drop") %>%
  arrange(genus_name,desc(n))
```

    ## # A tibble: 44 × 5
    ##    genus_name neighbourhood_name       diam_mean height_med     n
    ##    <chr>      <chr>                        <dbl>      <dbl> <int>
    ##  1 ACER       KITSILANO                     26.2          5   842
    ##  2 ACER       DUNBAR-SOUTHLANDS             26.2          5   802
    ##  3 ACER       SHAUGHNESSY                   26.0          5   714
    ##  4 ACER       KERRISDALE                    25.3          5   660
    ##  5 ACER       HASTINGS-SUNRISE              24.3          5   479
    ##  6 ACER       WEST POINT GREY               25.7          5   430
    ##  7 ACER       RILEY PARK                    25.2          5   357
    ##  8 ACER       MARPOLE                       25.8          4   267
    ##  9 ACER       KENSINGTON-CEDAR COTTAGE      25.5          5   261
    ## 10 ACER       WEST END                      26.6          5   239
    ## # … with 34 more rows
…
